PnrInstanceId,Type,Pnr_RecordLocator,Pnr_ClientIdentifier,Traveler_FirstName,Traveler_LastName,Traveler_EmailAddress,Traveler_PhoneNumber,Traveler_NameReference,Air_AirlineCode,Air_FlightNumber,Air_DeSEAtureIATACode,Air_DeSEAtureTime,Air_ArrivFUAIATACode,Air_ArrivFUATime,Air_ActionStatusCode,Car_PickupIATACode,Car_PickupTime,Car_DropoffIATACode,Car_DropoffTime,Car_VendorName,Hotel_CheckInDate,Hotel_CheckOutDate,Hotel_IATACode,Hotel_HotelName,Hotel_Address,Hotel_PhoneNumber,Hotel_HotelIdentifier,Rail_DeSEAtureCityRailCode,Rail_DeSEAtureTime,Rail_ArrivFUACityRailCode,Rail_ArrivFUATime,Rail_RailLineCode,CustomField_Name,CustomField_VFUAue,Remark,Hotel_FaxNumber,Rail_RailVendorCode,Rail_TrainNumber 
9999,Pnr,Yahoo1RL2018-05-30_9,Yahoo1,,,,,,,,,,,,,,,,,,,,,,,,,,,,,,,,,,,
9999,Traveler,,,yahoo1firstnamevivek59,yahoo1lastnamekarnam59,vivek.karnam@cigniti.com,9949197990,,,,,,,,,,,,,,,,,,,,,,,,,,,,,,,
9999,Traveler,,,yahoo1firstnamevivek13,yahoo1lastnamekarnam13,vivek.karnam@cigniti.com,9949197990,,,,,,,,,,,,,,,,,,,,,,,,,,,,,,,
9999,Rail,,,,,,,,,,,,,,,,,,,,,,,,,,,HHN,2017-07-07 1:00,LON,2017-08-30 12:00,,,,,,2V,9309
9999,Hotel,,,,,,,,,,,,,,,,,,,,2018-06-04,2018-06-04,DEL,Marriot,"District Centre Saket, New Delhi, Delhi 110017",,,,,,,,,,,,,
9999,Air,,,,,,,,BA,1716,PHL,2018-06-04 13:30,JFK,2018-06-04 15:30,,,,,,,,,,,,,,,,,,,,,,,,
9999,Air,,,,,,,,BA,1717,JFK,2018-06-08 13:30,PHL,2018-06-08 15:30,,,,,,,,,,,,,,,,,,,,,,,,