First01,Last01,First01.Last01@internationalsos.com,+1 (654) 555-5298,BIZUNIT-01,+1 (422) 555-7411,+1 (422) 555-7411
First02,Last02,First02.Last02@internationalsos.com,+1 (666) 555-6976,BIZUNIT-02,+1 (653) 555-8594,+1 (653) 555-8594
First03,Last03,First03.Last03@internationalsos.com,+1 (329) 555-9217,BIZUNIT-03,+1 (697) 555-6177,+1 (697) 555-6177
First04,Last04,First04.Last04@internationalsos.com,+1 (111) 555-9681,BIZUNIT-04,+1 (815) 555-6829,+1 (815) 555-6829
First05,Last05,First05.Last05@internationalsos.com,+1 (308) 555-6883,BIZUNIT-05,+1 (231) 555-7914,+1 (231) 555-7914
First06,Last06,First06.Last06@internationalsos.com,+1 (466) 555-2771,BIZUNIT-06,+1 (752) 555-6064,+1 (752) 555-6064
First07,Last07,First07.Last07@internationalsos.com,+1 (351) 555-7501,BIZUNIT-07,+1 (329) 555-9019,+1 (329) 555-9019
First08,Last08,First08.Last08@internationalsos.com,+1 (649) 555-8095,BIZUNIT-08,+1 (191) 555-1787,+1 (191) 555-1787
First09,Last09,First09.Last09@internationalsos.com,+1 (722) 555-9125,BIZUNIT-09,+1 (493) 555-230,+1 (493) 555-230
First010,Last010,First010.Last010@internationalsos.com,+1 (917) 555-2771,BIZUNIT-010,+1 (312) 555-8055,+1 (312) 555-8055
First011,Last011,First011.Last011@internationalsos.com,+1 (654) 555-5299,BIZUNIT-011,+1 (422) 555-7412,+1 (422) 555-7412
First012,Last012,First012.Last012@internationalsos.com,+1 (666) 555-6977,BIZUNIT-012,+1 (653) 555-8595,+1 (653) 555-8595
First013,Last013,First013.Last013@internationalsos.com,+1 (329) 555-9218,BIZUNIT-013,+1 (697) 555-6178,+1 (697) 555-6178
First014,Last014,First014.Last014@internationalsos.com,+1 (111) 555-9682,BIZUNIT-014,+1 (815) 555-6830,+1 (815) 555-6830
First015,Last015,First015.Last015@internationalsos.com,+1 (308) 555-6884,BIZUNIT-015,+1 (231) 555-7915,+1 (231) 555-7915
First016,Last016,First016.Last016@internationalsos.com,+1 (654) 555-5299,BIZUNIT-016,+1 (422) 555-7412,+1 (422) 555-7412
First017,Last017,First017.Last017@internationalsos.com,+1 (666) 555-6977,BIZUNIT-017,+1 (653) 555-8595,+1 (653) 555-8595
First018,Last018,First018.Last018@internationalsos.com,+1 (329) 555-9218,BIZUNIT-018,+1 (697) 555-6178,+1 (697) 555-6178
First019,Last019,First019.Last019@internationalsos.com,+1 (111) 555-9682,BIZUNIT-019,+1 (815) 555-6830,+1 (815) 555-6830
First020,Last020,First020.Last020@internationalsos.com,+1 (308) 555-6884,BIZUNIT-020,+1 (231) 555-7915,+1 (231) 555-7915
First021,Last021,First021.Last021@internationalsos.com,+1 (466) 555-2772,BIZUNIT-021,+1 (752) 555-6065,+1 (752) 555-6065
First022,Last022,First022.Last022@internationalsos.com,+1 (351) 555-7502,BIZUNIT-022,+1 (329) 555-9020,+1 (329) 555-9020
First023,Last023,First023.Last023@internationalsos.com,+1 (649) 555-8096,BIZUNIT-023,+1 (191) 555-1788,+1 (191) 555-1788
First024,Last024,First024.Last024@internationalsos.com,+1 (722) 555-9126,BIZUNIT-024,+1 (493) 555-231,+1 (493) 555-231
First025,Last025,First025.Last025@internationalsos.com,+1 (917) 555-2772,BIZUNIT-025,+1 (312) 555-8056,+1 (312) 555-8056
First026,Last026,First026.Last026@internationalsos.com,+1 (654) 555-5300,BIZUNIT-026,+1 (422) 555-7413,+1 (422) 555-7413
First027,Last027,First027.Last027@internationalsos.com,+1 (666) 555-6978,BIZUNIT-027,+1 (653) 555-8596,+1 (653) 555-8596
First028,Last028,First028.Last028@internationalsos.com,+1 (329) 555-9219,BIZUNIT-028,+1 (697) 555-6179,+1 (697) 555-6179
First029,Last029,First029.Last029@internationalsos.com,+1 (111) 555-9683,BIZUNIT-029,+1 (815) 555-6831,+1 (815) 555-6831
First030,Last030,First030.Last030@internationalsos.com,+1 (308) 555-6885,BIZUNIT-030,+1 (231) 555-7916,+1 (231) 555-7916
First031,Last031,First031.Last031@internationalsos.com,+1 (654) 555-5300,BIZUNIT-031,+1 (422) 555-7413,+1 (422) 555-7413
First032,Last032,First032.Last032@internationalsos.com,+1 (666) 555-6978,BIZUNIT-032,+1 (653) 555-8596,+1 (653) 555-8596
First033,Last033,First033.Last033@internationalsos.com,+1 (329) 555-9219,BIZUNIT-033,+1 (697) 555-6179,+1 (697) 555-6179
First034,Last034,First034.Last034@internationalsos.com,+1 (111) 555-9683,BIZUNIT-034,+1 (815) 555-6831,+1 (815) 555-6831
First035,Last035,First035.Last035@internationalsos.com,+1 (308) 555-6885,BIZUNIT-035,+1 (231) 555-7916,+1 (231) 555-7916
First036,Last036,First036.Last036@internationalsos.com,+1 (466) 555-2773,BIZUNIT-036,+1 (752) 555-6066,+1 (752) 555-6066
First037,Last037,First037.Last037@internationalsos.com,+1 (351) 555-7503,BIZUNIT-037,+1 (329) 555-9021,+1 (329) 555-9021
First038,Last038,First038.Last038@internationalsos.com,+1 (649) 555-8097,BIZUNIT-038,+1 (191) 555-1789,+1 (191) 555-1789
First039,Last039,First039.Last039@internationalsos.com,+1 (722) 555-9127,BIZUNIT-039,+1 (493) 555-232,+1 (493) 555-232
First040,Last040,First040.Last040@internationalsos.com,+1 (917) 555-2773,BIZUNIT-040,+1 (312) 555-8057,+1 (312) 555-8057
First041,Last041,First041.Last041@internationalsos.com,+1 (654) 555-5301,BIZUNIT-041,+1 (422) 555-7414,+1 (422) 555-7414
First042,Last042,First042.Last042@internationalsos.com,+1 (666) 555-6979,BIZUNIT-042,+1 (653) 555-8597,+1 (653) 555-8597
First043,Last043,First043.Last043@internationalsos.com,+1 (329) 555-9220,BIZUNIT-043,+1 (697) 555-6180,+1 (697) 555-6180
First044,Last044,First044.Last044@internationalsos.com,+1 (111) 555-9684,BIZUNIT-044,+1 (815) 555-6832,+1 (815) 555-6832
First045,Last045,First045.Last045@internationalsos.com,+1 (308) 555-6886,BIZUNIT-045,+1 (231) 555-7917,+1 (231) 555-7917
First046,Last046,First046.Last046@internationalsos.com,+1 (654) 555-5301,BIZUNIT-046,+1 (422) 555-7414,+1 (422) 555-7414
First047,Last047,First047.Last047@internationalsos.com,+1 (666) 555-6979,BIZUNIT-047,+1 (653) 555-8597,+1 (653) 555-8597
First048,Last048,First048.Last048@internationalsos.com,+1 (329) 555-9220,BIZUNIT-048,+1 (697) 555-6180,+1 (697) 555-6180
First049,Last049,First049.Last049@internationalsos.com,+1 (111) 555-9684,BIZUNIT-049,+1 (815) 555-6832,+1 (815) 555-6832
First050,Last050,First050.Last050@internationalsos.com,+1 (308) 555-6886,BIZUNIT-050,+1 (231) 555-7917,+1 (231) 555-7917
First051,Last051,First051.Last051@internationalsos.com,+1 (466) 555-2774,BIZUNIT-051,+1 (752) 555-6067,+1 (752) 555-6067
First052,Last052,First052.Last052@internationalsos.com,+1 (351) 555-7504,BIZUNIT-052,+1 (329) 555-9022,+1 (329) 555-9022
First053,Last053,First053.Last053@internationalsos.com,+1 (649) 555-8098,BIZUNIT-053,+1 (191) 555-1790,+1 (191) 555-1790
First054,Last054,First054.Last054@internationalsos.com,+1 (722) 555-9128,BIZUNIT-054,+1 (493) 555-233,+1 (493) 555-233
First055,Last055,First055.Last055@internationalsos.com,+1 (917) 555-2774,BIZUNIT-055,+1 (312) 555-8058,+1 (312) 555-8058
First056,Last056,First056.Last056@internationalsos.com,+1 (654) 555-5302,BIZUNIT-056,+1 (422) 555-7415,+1 (422) 555-7415
First057,Last057,First057.Last057@internationalsos.com,+1 (666) 555-6980,BIZUNIT-057,+1 (653) 555-8598,+1 (653) 555-8598
First058,Last058,First058.Last058@internationalsos.com,+1 (329) 555-9221,BIZUNIT-058,+1 (697) 555-6181,+1 (697) 555-6181
First059,Last059,First059.Last059@internationalsos.com,+1 (111) 555-9685,BIZUNIT-059,+1 (815) 555-6833,+1 (815) 555-6833
First060,Last060,First060.Last060@internationalsos.com,+1 (308) 555-6887,BIZUNIT-060,+1 (231) 555-7918,+1 (231) 555-7918
First061,Last061,First061.Last061@internationalsos.com,+1 (654) 555-5302,BIZUNIT-061,+1 (422) 555-7415,+1 (422) 555-7415
First062,Last062,First062.Last062@internationalsos.com,+1 (666) 555-6980,BIZUNIT-062,+1 (653) 555-8598,+1 (653) 555-8598
First063,Last063,First063.Last063@internationalsos.com,+1 (329) 555-9221,BIZUNIT-063,+1 (697) 555-6181,+1 (697) 555-6181
First064,Last064,First064.Last064@internationalsos.com,+1 (111) 555-9685,BIZUNIT-064,+1 (815) 555-6833,+1 (815) 555-6833
First065,Last065,First065.Last065@internationalsos.com,+1 (308) 555-6887,BIZUNIT-065,+1 (231) 555-7918,+1 (231) 555-7918
First066,Last066,First066.Last066@internationalsos.com,+1 (466) 555-2775,BIZUNIT-066,+1 (752) 555-6068,+1 (752) 555-6068
First067,Last067,First067.Last067@internationalsos.com,+1 (351) 555-7505,BIZUNIT-067,+1 (329) 555-9023,+1 (329) 555-9023
First068,Last068,First068.Last068@internationalsos.com,+1 (649) 555-8099,BIZUNIT-068,+1 (191) 555-1791,+1 (191) 555-1791
First069,Last069,First069.Last069@internationalsos.com,+1 (722) 555-9129,BIZUNIT-069,+1 (493) 555-234,+1 (493) 555-234
First070,Last070,First070.Last070@internationalsos.com,+1 (917) 555-2775,BIZUNIT-070,+1 (312) 555-8059,+1 (312) 555-8059
First071,Last071,First071.Last071@internationalsos.com,+1 (654) 555-5303,BIZUNIT-071,+1 (422) 555-7416,+1 (422) 555-7416
First072,Last072,First072.Last072@internationalsos.com,+1 (666) 555-6981,BIZUNIT-072,+1 (653) 555-8599,+1 (653) 555-8599
First073,Last073,First073.Last073@internationalsos.com,+1 (329) 555-9222,BIZUNIT-073,+1 (697) 555-6182,+1 (697) 555-6182
First074,Last074,First074.Last074@internationalsos.com,+1 (111) 555-9686,BIZUNIT-074,+1 (815) 555-6834,+1 (815) 555-6834
First075,Last075,First075.Last075@internationalsos.com,+1 (308) 555-6888,BIZUNIT-075,+1 (231) 555-7919,+1 (231) 555-7919
First076,Last076,First076.Last076@internationalsos.com,+1 (654) 555-5303,BIZUNIT-076,+1 (422) 555-7416,+1 (422) 555-7416
First077,Last077,First077.Last077@internationalsos.com,+1 (666) 555-6981,BIZUNIT-077,+1 (653) 555-8599,+1 (653) 555-8599
First078,Last078,First078.Last078@internationalsos.com,+1 (329) 555-9222,BIZUNIT-078,+1 (697) 555-6182,+1 (697) 555-6182
First079,Last079,First079.Last079@internationalsos.com,+1 (111) 555-9686,BIZUNIT-079,+1 (815) 555-6834,+1 (815) 555-6834
First080,Last080,First080.Last080@internationalsos.com,+1 (308) 555-6888,BIZUNIT-080,+1 (231) 555-7919,+1 (231) 555-7919
First081,Last081,First081.Last081@internationalsos.com,+1 (466) 555-2776,BIZUNIT-081,+1 (752) 555-6069,+1 (752) 555-6069
First082,Last082,First082.Last082@internationalsos.com,+1 (351) 555-7506,BIZUNIT-082,+1 (329) 555-9024,+1 (329) 555-9024
First083,Last083,First083.Last083@internationalsos.com,+1 (649) 555-8100,BIZUNIT-083,+1 (191) 555-1792,+1 (191) 555-1792
First084,Last084,First084.Last084@internationalsos.com,+1 (722) 555-9130,BIZUNIT-084,+1 (493) 555-235,+1 (493) 555-235
First085,Last085,First085.Last085@internationalsos.com,+1 (917) 555-2776,BIZUNIT-085,+1 (312) 555-8060,+1 (312) 555-8060
First086,Last086,First086.Last086@internationalsos.com,+1 (654) 555-5304,BIZUNIT-086,+1 (422) 555-7417,+1 (422) 555-7417
First087,Last087,First087.Last087@internationalsos.com,+1 (666) 555-6982,BIZUNIT-087,+1 (653) 555-8600,+1 (653) 555-8600
First088,Last088,First088.Last088@internationalsos.com,+1 (329) 555-9223,BIZUNIT-088,+1 (697) 555-6183,+1 (697) 555-6183
First089,Last089,First089.Last089@internationalsos.com,+1 (111) 555-9687,BIZUNIT-089,+1 (815) 555-6835,+1 (815) 555-6835
First090,Last090,First090.Last090@internationalsos.com,+1 (308) 555-6889,BIZUNIT-090,+1 (231) 555-7920,+1 (231) 555-7920
First091,Last091,First091.Last091@internationalsos.com,+1 (654) 555-5304,BIZUNIT-091,+1 (422) 555-7417,+1 (422) 555-7417
First092,Last092,First092.Last092@internationalsos.com,+1 (666) 555-6982,BIZUNIT-092,+1 (653) 555-8600,+1 (653) 555-8600
First093,Last093,First093.Last093@internationalsos.com,+1 (329) 555-9223,BIZUNIT-093,+1 (697) 555-6183,+1 (697) 555-6183
First094,Last094,First094.Last094@internationalsos.com,+1 (111) 555-9687,BIZUNIT-094,+1 (815) 555-6835,+1 (815) 555-6835
First095,Last095,First095.Last095@internationalsos.com,+1 (308) 555-6889,BIZUNIT-095,+1 (231) 555-7920,+1 (231) 555-7920
First096,Last096,First096.Last096@internationalsos.com,+1 (466) 555-2777,BIZUNIT-096,+1 (752) 555-6070,+1 (752) 555-6070
First097,Last097,First097.Last097@internationalsos.com,+1 (351) 555-7507,BIZUNIT-097,+1 (329) 555-9025,+1 (329) 555-9025
First098,Last098,First098.Last098@internationalsos.com,+1 (649) 555-8101,BIZUNIT-098,+1 (191) 555-1793,+1 (191) 555-1793
First099,Last099,First099.Last099@internationalsos.com,+1 (722) 555-9131,BIZUNIT-099,+1 (493) 555-236,+1 (493) 555-236
First100,Last100,First100.Last100@internationalsos.com,+1 (917) 555-2777,BIZUNIT-100,+1 (312) 555-8061,+1 (312) 555-8061
